…
``` r
model_df <- model_df %>% 
  modelr::add_predictions(model1) %>% 
  modelr::add_residuals(model1)

model_df
```

    ## # A tibble: 4,342 x 9
    ##      bwt babysex bhead blength delwt gaweeks wtgain  pred  resid
    ##    <dbl> <fct>   <dbl>   <dbl> <dbl>   <dbl>  <dbl> <dbl>  <dbl>
    ##  1  3629 female     34      51   177    39.9     29 3349.  280. 
    ##  2  3062 male       34      48   156    25.9     28 2860.  202. 
    ##  3  3345 female     36      50   148    39.9     11 3459. -114. 
    ##  4  3062 male       34      52   157    40       30 3367. -305. 
    ##  5  3374 female     34      52   156    41.6     26 3410.  -36.2
    ##  6  3374 male       33      52   129    40.7     14 3159.  215. 
    ##  7  2523 female     33      46   126    40.3     21 2724. -201. 
    ##  8  2778 female     33      49   140    37.4     21 2945. -167. 
    ##  9  3515 male       36      52   146    40.3     41 3652. -137. 
    ## 10  3459 male       33      50   169    40.7     24 3087.  372. 
    ## # … with 4,332 more rows
…
